{
  "id": "6c7c99c4-66ea-4407-b69d-7f2506acd658",
  "name": "Fynd_Live_GCE",
  "values": [
    {
      "key": "fynd_url",
      "value": "35.188.13.194",
      "type": "text",
      "enabled": true
    },
    {
      "key": "fynd_port",
      "value": "80",
      "type": "text",
      "enabled": true
    },
    {
      "key": "fynd_version",
      "value": "v1.0",
      "type": "text",
      "enabled": true
    },
    {
      "key": "fynd_username",
      "value": "evalsocket",
      "type": "text",
      "enabled": true
    },
    {
      "key": "fynd_password",
      "value": "evalsocket",
      "type": "text",
      "enabled": true
    }
  ],
  "_postman_variable_scope": "environment",
  "_postman_exported_at": "2018-06-10T14:13:44.536Z",
  "_postman_exported_using": "Postman/6.1.3"
}